<?xml version="1.0" encoding="utf-8"?>
<!-- Generator: Adobe Illustrator 23.0.2, SVG Export Plug-In . SVG Version: 6.00 Build 0)  -->
<svg version="1.1" id="Réteg_1" xmlns="http://www.w3.org/2000/svg" xmlns:xlink="http://www.w3.org/1999/xlink" x="0px" y="0px"
	 viewBox="0 0 673.9 468.7" style="enable-background:new 0 0 673.9 468.7;" xml:space="preserve">
<style type="text/css">
	.st0{fill:url(#SVGID_1_);}
</style>
<title>dx-light-gray</title>
<g>
	<g>
		<linearGradient id="SVGID_1_" gradientUnits="userSpaceOnUse" x1="0" y1="234.35" x2="673.8" y2="234.35">
			<stop  offset="0" style="stop-color:#F0F0F0"/>
			<stop  offset="1" style="stop-color:#F7F7F7"/>
		</linearGradient>
		<path class="st0" d="M465.6,243.3l5.4-7.3H333.4l-39.9,55h189.1L465.6,243.3z M235.4,290.6c8.2-17.3,13.7-35.7,16.4-54.6h-77.6
			c-1.4,7.3-3.4,14.4-6,21.4c-6.2,16.9-15,29.9-26.3,39c-10.8,8.9-24.4,13.7-38.4,13.6H90l15.5-74H29L0,373.3h92
			c33.6,0,62.7-7.1,87.2-21.3C203.8,337.8,222.5,317.3,235.4,290.6z M440.2,67l-8.1-30.7H330.6l10,30.7H440.2z M424.6,147l-18.4-70
			h-99.6l22.8,70H424.6z M164.2,468.7h110.4l58.2-85.7H226.4L164.2,468.7z M155.6,140.1h13.9c12.6,0,22.5,4.2,29.5,12.6
			c7,8.4,10.5,20.7,10.6,37c0.1,12.2-1.1,24.4-3.4,36.4h77.6c2-13.3,3-26.8,2.9-40.2c0-34.4-9.9-61-29.6-79.8s-47.6-28.2-83.5-28.2
			H92.3L61,226h76.6L155.6,140.1z M437.2,147h101l51.9-70H483.4L437.2,147z M392.5,383l17.6,60.2h105.5L494.2,383H392.5z M559.5,0
			l-44.2,67h108.8l49.7-67H559.5z M443.2,170.8l-3.6-13.8h-95.2l21.7,66.7l-1.6,2.3H502l51.2-69h-101L443.2,170.8z M313.5,301
			l-52.2,72h105.6l41.7-61.4l18,61.4h101.7l-25.6-72H313.5z"/>
	</g>
</g>
</svg>
