<svg xmlns="http://www.w3.org/2000/svg" width="6.253" height="10.936" viewBox="0 0 6.253 10.936">
  <path id="Icon_ionic-ios-arrow-forward" data-name="Icon ionic-ios-arrow-forward" d="M15.615,11.662,11.476,7.527a.778.778,0,0,1,0-1.1.788.788,0,0,1,1.107,0l4.689,4.685a.78.78,0,0,1,.023,1.078L14.48,15.007l-1.894,1.9a.782.782,0,1,1-1.107-1.1Z" transform="translate(-11.246 -6.196)" fill="#fff"/>
</svg>
