<svg xmlns="http://www.w3.org/2000/svg" width="27.475" height="27.475" viewBox="0 0 27.475 27.475">
  <path id="Icon_awesome-phone-alt" data-name="Icon awesome-phone-alt" d="M26.691,19.415l-6.01-2.576a1.288,1.288,0,0,0-1.5.37l-2.662,3.252a19.891,19.891,0,0,1-9.509-9.509L10.26,8.292a1.285,1.285,0,0,0,.37-1.5L8.055.779A1.3,1.3,0,0,0,6.579.033L1,1.321A1.288,1.288,0,0,0,0,2.576a24.9,24.9,0,0,0,24.9,24.9,1.288,1.288,0,0,0,1.256-1L27.443,20.9a1.3,1.3,0,0,0-.752-1.481Z" transform="translate(0 0)" fill="#f9f9f9"/>
</svg>
